Census xtab • statcanXtabs
…
Also, we usually want to pivot the last columns from wide to long
form, the standardize_xtab function takes care of that.

vancouver_dwelling_income <- xtab_data %>%
  filter(`GEO_CODE (POR)`=="933",
         `Household type including census family structure` ==
           "Total - Household type including census family structure") %>%
  select(GeoUID=`GEO_CODE (POR)`, Name=GEO_NAME,`Structural type of dwelling`, matches("^Dim: ")) %>%
  collect_and_normalize_xtab(disconnect=TRUE)

vancouver_dwelling_income
#> # A tibble: 30 × 5
#>    GeoUID Name      `Structural type of dwelling`                 House…¹  Value
#>    <chr>  <chr>     <chr>                                         <chr>    <dbl>
#>  1 933    Vancouver Total - Structural type of dwelling           Total … 960895
#>  2 933    Vancouver Single-detached house                         Total … 282360
#>  3 933    Vancouver Apartment in a building that has five or mor… Total … 160060
#>  4 933    Vancouver Other attached dwelling                       Total … 513900
#>  5 933    Vancouver Semi-detached house                           Total …  20530
#>  6 933    Vancouver Row house                                     Total …  93415
#>  7 933    Vancouver Apartment or flat in a duplex                 Total … 156445
#>  8 933    Vancouver Apartment in a building that has fewer than … Total … 242200
#>  9 933    Vancouver Other single-attached house                   Total …   1310
#> 10 933    Vancouver Movable dwelling                              Total …   4580
#> # … with 20 more rows, and abbreviated variable name
#> #   ¹​`Household income statistics`
#> # ℹ Use `print(n = ...)` to see more rows
…
